{
	"products": [{
			"name": "samsung galaxy edge",
			"price": 16000
		},
		{
			"name": "samsung galaxy edge",
			"price": 10000
		},
		{
			"name": "samsung galaxy edge",
			"price": 22000
		},
		{
			"name": "samsung note 6",
			"price": 3500
		},
		{
			"name": "redmi note4",
			"price": 11000
		},
		{
			"name": "iphone 5se",
			"price": 20000
		},
		{
			"name": "iphone 5s",
			"price": 18000
		}
	]
}